info face="Sansation Regular" size=150 bold=0 italic=0 charset="" unicode=0 stretchH=100 smooth=1 aa=1 padding=0,0,0,0 spacing=0,0
common lineHeight=169 base=136 scaleW=512 scaleH=512 pages=3 packed=0
page id=0 file="sensation1.png"
page id=1 file="sensation2.png"
page id=2 file="sensation3.png"
chars count=95
char id=32   x=0     y=0     width=0     height=0     xoffset=0     yoffset=136    xadvance=37     page=0  chnl=0 
char id=106   x=0     y=0     width=25     height=136     xoffset=3     yoffset=31    xadvance=38     page=0  chnl=0 
char id=64   x=25     y=0     width=138     height=135     xoffset=10     yoffset=30    xadvance=157     page=0  chnl=0 
char id=81   x=163     y=0     width=107     height=135     xoffset=8     yoffset=30    xadvance=122     page=0  chnl=0 
char id=124   x=270     y=0     width=16     height=134     xoffset=10     yoffset=31    xadvance=36     page=0  chnl=0 
char id=125   x=286     y=0     width=41     height=134     xoffset=3     yoffset=31    xadvance=49     page=0  chnl=0 
char id=123   x=327     y=0     width=40     height=134     xoffset=7     yoffset=31    xadvance=49     page=0  chnl=0 
char id=93   x=367     y=0     width=35     height=134     xoffset=3     yoffset=31    xadvance=48     page=0  chnl=0 
char id=91   x=402     y=0     width=35     height=134     xoffset=10     yoffset=31    xadvance=48     page=0  chnl=0 
char id=41   x=437     y=0     width=30     height=134     xoffset=7     yoffset=31    xadvance=43     page=0  chnl=0 
char id=40   x=467     y=0     width=30     height=134     xoffset=7     yoffset=31    xadvance=43     page=0  chnl=0 
char id=57   x=0     y=136     width=80     height=110     xoffset=7     yoffset=31    xadvance=92     page=0  chnl=0 
char id=54   x=80     y=136     width=80     height=110     xoffset=7     yoffset=28    xadvance=92     page=0  chnl=0 
char id=102   x=160     y=136     width=58     height=110     xoffset=10     yoffset=27    xadvance=52     page=0  chnl=0 
char id=37   x=218     y=136     width=91     height=108     xoffset=7     yoffset=30    xadvance=104     page=0  chnl=0 
char id=48   x=309     y=136     width=91     height=108     xoffset=8     yoffset=30    xadvance=106     page=0  chnl=0 
char id=56   x=400     y=136     width=78     height=108     xoffset=7     yoffset=30    xadvance=91     page=0  chnl=0 
char id=51   x=0     y=246     width=69     height=108     xoffset=7     yoffset=30    xadvance=84     page=0  chnl=0 
char id=83   x=69     y=246     width=82     height=108     xoffset=7     yoffset=30    xadvance=94     page=0  chnl=0 
char id=79   x=151     y=246     width=107     height=108     xoffset=8     yoffset=30    xadvance=122     page=0  chnl=0 
char id=71   x=258     y=246     width=86     height=108     xoffset=7     yoffset=30    xadvance=101     page=0  chnl=0 
char id=67   x=344     y=246     width=86     height=108     xoffset=7     yoffset=30    xadvance=101     page=0  chnl=0 
char id=38   x=0     y=354     width=88     height=107     xoffset=7     yoffset=31    xadvance=93     page=0  chnl=0 
char id=35   x=88     y=354     width=126     height=107     xoffset=7     yoffset=31    xadvance=139     page=0  chnl=0 
char id=53   x=214     y=354     width=71     height=107     xoffset=9     yoffset=31    xadvance=86     page=0  chnl=0 
char id=50   x=285     y=354     width=74     height=107     xoffset=4     yoffset=30    xadvance=84     page=0  chnl=0 
char id=49   x=359     y=354     width=26     height=107     xoffset=7     yoffset=30    xadvance=47     page=0  chnl=0 
char id=121   x=385     y=354     width=76     height=107     xoffset=1     yoffset=59    xadvance=77     page=0  chnl=0 
char id=45   x=461     y=354     width=38     height=13     xoffset=7     yoffset=92    xadvance=51     page=0  chnl=0 
char id=95   x=0     y=461     width=76     height=13     xoffset=1     yoffset=135    xadvance=77     page=0  chnl=0 
char id=46   x=76     y=461     width=15     height=15     xoffset=7     yoffset=122    xadvance=28     page=0  chnl=0 
char id=126   x=91     y=461     width=57     height=18     xoffset=7     yoffset=89    xadvance=70     page=0  chnl=0 
char id=96   x=148     y=461     width=31     height=19     xoffset=7     yoffset=31    xadvance=44     page=0  chnl=0 
char id=34   x=179     y=461     width=42     height=34     xoffset=7     yoffset=31    xadvance=55     page=0  chnl=0 
char id=39   x=221     y=461     width=15     height=34     xoffset=7     yoffset=31    xadvance=28     page=0  chnl=0 
char id=44   x=236     y=461     width=27     height=34     xoffset=1     yoffset=122    xadvance=28     page=0  chnl=0 
char id=61   x=263     y=461     width=57     height=35     xoffset=7     yoffset=81    xadvance=70     page=0  chnl=0 
char id=42   x=320     y=461     width=47     height=44     xoffset=7     yoffset=31    xadvance=59     page=0  chnl=0 
char id=85   x=0     y=0     width=89     height=107     xoffset=11     yoffset=31    xadvance=111     page=1  chnl=0 
char id=36   x=89     y=0     width=64     height=106     xoffset=7     yoffset=31    xadvance=77     page=1  chnl=0 
char id=92   x=153     y=0     width=70     height=106     xoffset=1     yoffset=31    xadvance=72     page=1  chnl=0 
char id=47   x=223     y=0     width=70     height=106     xoffset=1     yoffset=31    xadvance=72     page=1  chnl=0 
char id=63   x=293     y=0     width=69     height=106     xoffset=7     yoffset=31    xadvance=82     page=1  chnl=0 
char id=33   x=362     y=0     width=16     height=106     xoffset=10     yoffset=31    xadvance=36     page=1  chnl=0 
char id=55   x=378     y=0     width=72     height=106     xoffset=4     yoffset=31    xadvance=80     page=1  chnl=0 
char id=52   x=0     y=107     width=81     height=106     xoffset=4     yoffset=31    xadvance=89     page=1  chnl=0 
char id=113   x=81     y=107     width=70     height=106     xoffset=7     yoffset=59    xadvance=87     page=1  chnl=0 
char id=112   x=151     y=107     width=71     height=106     xoffset=10     yoffset=59    xadvance=87     page=1  chnl=0 
char id=108   x=222     y=107     width=16     height=106     xoffset=11     yoffset=31    xadvance=37     page=1  chnl=0 
char id=107   x=238     y=107     width=73     height=106     xoffset=10     yoffset=31    xadvance=87     page=1  chnl=0 
char id=105   x=311     y=107     width=16     height=106     xoffset=12     yoffset=31    xadvance=38     page=1  chnl=0 
char id=104   x=327     y=107     width=69     height=106     xoffset=10     yoffset=31    xadvance=88     page=1  chnl=0 
char id=103   x=396     y=107     width=70     height=106     xoffset=7     yoffset=59    xadvance=87     page=1  chnl=0 
char id=100   x=0     y=213     width=71     height=106     xoffset=7     yoffset=31    xadvance=87     page=1  chnl=0 
char id=98   x=71     y=213     width=71     height=106     xoffset=10     yoffset=31    xadvance=87     page=1  chnl=0 
char id=90   x=142     y=213     width=81     height=106     xoffset=9     yoffset=31    xadvance=97     page=1  chnl=0 
char id=89   x=223     y=213     width=94     height=106     xoffset=1     yoffset=31    xadvance=95     page=1  chnl=0 
char id=88   x=317     y=213     width=101     height=106     xoffset=1     yoffset=31    xadvance=103     page=1  chnl=0 
char id=87   x=0     y=319     width=134     height=106     xoffset=3     yoffset=31    xadvance=139     page=1  chnl=0 
char id=86   x=134     y=319     width=106     height=106     xoffset=1     yoffset=31    xadvance=108     page=1  chnl=0 
char id=84   x=240     y=319     width=82     height=106     xoffset=3     yoffset=31    xadvance=87     page=1  chnl=0 
char id=82   x=322     y=319     width=83     height=106     xoffset=12     yoffset=31    xadvance=96     page=1  chnl=0 
char id=80   x=405     y=319     width=77     height=106     xoffset=12     yoffset=31    xadvance=93     page=1  chnl=0 
char id=94   x=0     y=425     width=72     height=55     xoffset=3     yoffset=31    xadvance=77     page=1  chnl=0 
char id=43   x=72     y=425     width=57     height=57     xoffset=7     yoffset=70    xadvance=70     page=1  chnl=0 
char id=60   x=129     y=425     width=68     height=72     xoffset=7     yoffset=62    xadvance=81     page=1  chnl=0 
char id=62   x=197     y=425     width=68     height=72     xoffset=7     yoffset=62    xadvance=81     page=1  chnl=0 
char id=97   x=265     y=425     width=67     height=78     xoffset=7     yoffset=59    xadvance=83     page=1  chnl=0 
char id=99   x=332     y=425     width=63     height=78     xoffset=7     yoffset=59    xadvance=75     page=1  chnl=0 
char id=101   x=395     y=425     width=70     height=78     xoffset=7     yoffset=59    xadvance=83     page=1  chnl=0 
char id=78   x=0     y=0     width=92     height=106     xoffset=12     yoffset=31    xadvance=115     page=2  chnl=0 
char id=77   x=92     y=0     width=112     height=106     xoffset=12     yoffset=31    xadvance=135     page=2  chnl=0 
char id=76   x=204     y=0     width=70     height=106     xoffset=12     yoffset=31    xadvance=84     page=2  chnl=0 
char id=75   x=274     y=0     width=90     height=106     xoffset=12     yoffset=31    xadvance=103     page=2  chnl=0 
char id=74   x=364     y=0     width=38     height=106     xoffset=1     yoffset=31    xadvance=51     page=2  chnl=0 
char id=73   x=402     y=0     width=16     height=106     xoffset=14     yoffset=31    xadvance=43     page=2  chnl=0 
char id=72   x=418     y=0     width=91     height=106     xoffset=12     yoffset=31    xadvance=114     page=2  chnl=0 
char id=70   x=0     y=106     width=70     height=106     xoffset=12     yoffset=31    xadvance=85     page=2  chnl=0 
char id=69   x=70     y=106     width=72     height=106     xoffset=12     yoffset=31    xadvance=90     page=2  chnl=0 
char id=68   x=142     y=106     width=92     height=106     xoffset=12     yoffset=31    xadvance=110     page=2  chnl=0 
char id=66   x=234     y=106     width=78     height=106     xoffset=12     yoffset=31    xadvance=97     page=2  chnl=0 
char id=65   x=312     y=106     width=106     height=106     xoffset=1     yoffset=31    xadvance=108     page=2  chnl=0 
char id=59   x=418     y=106     width=26     height=97     xoffset=7     yoffset=59    xadvance=39     page=2  chnl=0 
char id=127   x=0     y=212     width=77     height=95     xoffset=3     yoffset=42    xadvance=82     page=2  chnl=0 
char id=116   x=77     y=212     width=35     height=91     xoffset=10     yoffset=46    xadvance=49     page=2  chnl=0 
char id=58   x=112     y=212     width=16     height=78     xoffset=10     yoffset=59    xadvance=32     page=2  chnl=0 
char id=122   x=128     y=212     width=63     height=78     xoffset=7     yoffset=59    xadvance=76     page=2  chnl=0 
char id=120   x=191     y=212     width=76     height=78     xoffset=1     yoffset=59    xadvance=77     page=2  chnl=0 
char id=119   x=267     y=212     width=110     height=78     xoffset=2     yoffset=59    xadvance=113     page=2  chnl=0 
char id=118   x=377     y=212     width=75     height=78     xoffset=0     yoffset=59    xadvance=73     page=2  chnl=0 
char id=117   x=0     y=307     width=69     height=78     xoffset=10     yoffset=59    xadvance=88     page=2  chnl=0 
char id=115   x=69     y=307     width=64     height=78     xoffset=7     yoffset=59    xadvance=77     page=2  chnl=0 
char id=114   x=133     y=307     width=38     height=78     xoffset=10     yoffset=59    xadvance=49     page=2  chnl=0 
char id=111   x=171     y=307     width=75     height=78     xoffset=7     yoffset=59    xadvance=88     page=2  chnl=0 
char id=110   x=246     y=307     width=69     height=78     xoffset=10     yoffset=59    xadvance=88     page=2  chnl=0 
char id=109   x=315     y=307     width=113     height=78     xoffset=10     yoffset=59    xadvance=132     page=2  chnl=0 
kernings count=1096
kerning first=57  second=55  amount=-4
kerning first=54  second=55  amount=-11
kerning first=54  second=57  amount=-7
kerning first=83  second=83  amount=-7
kerning first=55  second=52  amount=-11
kerning first=55  second=54  amount=-7
kerning first=52  second=55  amount=-11
kerning first=89  second=65  amount=-11
kerning first=89  second=97  amount=-11
kerning first=89  second=99  amount=-11
kerning first=89  second=100  amount=-11
kerning first=89  second=101  amount=-11
kerning first=89  second=103  amount=-11
kerning first=89  second=109  amount=-7
kerning first=89  second=110  amount=-7
kerning first=89  second=111  amount=-11
kerning first=89  second=112  amount=-7
kerning first=89  second=113  amount=-11
kerning first=89  second=114  amount=-7
kerning first=89  second=115  amount=-11
kerning first=89  second=117  amount=-7
kerning first=89  second=120  amount=-7
kerning first=89  second=122  amount=-7
kerning first=86  second=65  amount=-11
kerning first=86  second=97  amount=-7
kerning first=86  second=99  amount=-9
kerning first=86  second=100  amount=-9
kerning first=86  second=101  amount=-9
kerning first=86  second=103  amount=-9
kerning first=86  second=109  amount=-7
kerning first=86  second=110  amount=-7
kerning first=86  second=111  amount=-9
kerning first=86  second=112  amount=-7
kerning first=86  second=113  amount=-9
kerning first=86  second=114  amount=-7
kerning first=86  second=115  amount=-9
kerning first=86  second=122  amount=-7
kerning first=84  second=65  amount=-11
kerning first=84  second=74  amount=-9
kerning first=84  second=97  amount=-11
kerning first=84  second=99  amount=-11
kerning first=84  second=100  amount=-11
kerning first=84  second=101  amount=-11
kerning first=84  second=103  amount=-11
kerning first=84  second=109  amount=-10
kerning first=84  second=110  amount=-11
kerning first=84  second=111  amount=-11
kerning first=84  second=112  amount=-11
kerning first=84  second=113  amount=-11
kerning first=84  second=114  amount=-11
kerning first=84  second=115  amount=-11
kerning first=84  second=116  amount=-11
kerning first=84  second=117  amount=-11
kerning first=84  second=118  amount=-11
kerning first=84  second=119  amount=-11
kerning first=84  second=120  amount=-11
kerning first=84  second=121  amount=-11
kerning first=84  second=122  amount=-11
kerning first=80  second=65  amount=-11
kerning first=80  second=74  amount=-7
kerning first=76  second=67  amount=-11
kerning first=76  second=71  amount=-11
kerning first=76  second=79  amount=-11
kerning first=76  second=81  amount=-11
kerning first=76  second=84  amount=-22
kerning first=76  second=86  amount=-15
kerning first=76  second=89  amount=-16
kerning first=75  second=67  amount=-11
kerning first=75  second=71  amount=-11
kerning first=75  second=79  amount=-11
kerning first=75  second=81  amount=-11
kerning first=70  second=65  amount=-11
kerning first=65  second=84  amount=-11
kerning first=65  second=86  amount=-11
kerning first=65  second=89  amount=-13
